{
	"process_id" : 6168,
	"version" : "2020.1.1f1",
	"app_path" : "C:/Program Files/Unity/Hub/Editor/2020.1.1f1/Editor/Unity.exe",
	"app_contents_path" : "C:/Program Files/Unity/Hub/Editor/2020.1.1f1/Editor/Data"
}